…
theme_set(theme_bw())
```

``` r
dm2200 <- read_csv("data/dm2200.csv") %>% 
    type.convert() %>% # convert characters to factors
    mutate(subject = as.character(subject),
           bp_good = as.numeric(sbp < 140 & dbp < 90))

dm2200
```

    # A tibble: 2,200 x 26
       subject exposure   age race   hisp sex   insur nincome nhsgrad cleve
       <chr>   <fct>    <int> <fct> <int> <fct> <fct>   <dbl>   <int> <int>
     1 S-0001  A           67 Blac~     0 F     Medi~   24700      72     1
     2 S-0002  B           56 White     0 F     Comm~   62300      85     0
     3 S-0003  B           41 Blac~     0 M     Medi~    6500      49     1
     4 S-0004  A           56 Blac~     0 M     Medi~   45400      86     0
     5 S-0005  B           69 Blac~     0 F     Medi~   15400      72     0
     6 S-0006  B           44 Blac~     0 M     Medi~   34100      87     0
     7 S-0007  B           47 Blac~     0 F     Medi~   13900      42     1
     8 S-0008  B           60 Blac~     0 M     Medi~   30800      91     0
     9 S-0009  B           67 Other     1 F     Medi~   47100      90     1
    10 S-0010  B           70 Blac~     0 F     Medi~   20800      69     1
    # ... with 2,190 more rows, and 16 more variables: height_cm <int>,
    #   weight_kg <int>, bmi <dbl>, a1c <dbl>, sbp <int>, dbp <int>, ldl <int>,
    #   visits <int>, tobacco <fct>, statin <int>, ace_arb <int>, betab <int>,
    #   depr_dx <int>, eyeex <int>, pneumo <int>, bp_good <dbl>
…
``` r
dm2200_matched2 %>% count(exposure)
```

    # A tibble: 2 x 2
      exposure     n
      <fct>    <int>
    1 A          400
    2 B          400

``` r
dm2200_matched2 %>% count(subject, exposure)
```

    # A tibble: 600 x 3
       subject exposure     n
       <chr>   <fct>    <int>
     1 S-0001  A            2
     2 S-0004  A            2
     3 S-0007  B            1
     4 S-0008  B            1
     5 S-0014  B            1
     6 S-0017  A            2
     7 S-0026  A            2
     8 S-0027  A            2
     9 S-0037  A            2
    10 S-0045  B            1
    # ... with 590 more rows
…
