Propensity Matching and the dm2200 Data
…
theme_set(theme_bw())

dm2200 <- read_csv("data/dm2200.csv") %>% 
    type.convert(as.is = FALSE) %>% # characters to factors
    mutate(subject = as.character(subject),
           bp_good = as.numeric(sbp < 140 & dbp < 90))

dm2200

# A tibble: 2,200 x 26
   subject exposure   age race      hisp sex   insur      nincome nhsgrad cleve
   <chr>   <fct>    <int> <fct>    <int> <fct> <fct>        <dbl>   <int> <int>
 1 S-0001  A           67 Black_AA     0 F     Medicare     24700      72     1
 2 S-0002  B           56 White        0 F     Commercial   62300      85     0
 3 S-0003  B           41 Black_AA     0 M     Medicare      6500      49     1
 4 S-0004  A           56 Black_AA     0 M     Medicaid     45400      86     0
 5 S-0005  B           69 Black_AA     0 F     Medicare     15400      72     0
 6 S-0006  B           44 Black_AA     0 M     Medicaid     34100      87     0
 7 S-0007  B           47 Black_AA     0 F     Medicaid     13900      42     1
 8 S-0008  B           60 Black_AA     0 M     Medicaid     30800      91     0
 9 S-0009  B           67 Other        1 F     Medicare     47100      90     1
10 S-0010  B           70 Black_AA     0 F     Medicare     20800      69     1
# ... with 2,190 more rows, and 16 more variables: height_cm <int>,
#   weight_kg <int>, bmi <dbl>, a1c <dbl>, sbp <int>, dbp <int>, ldl <int>,
#   visits <int>, tobacco <fct>, statin <int>, ace_arb <int>, betab <int>,
#   depr_dx <int>, eyeex <int>, pneumo <int>, bp_good <dbl>
…
