The Lindner Example
…
theme_set(theme_light()) # set theme for ggplots

Note: we will also use the broom.mixed package, but we are not loading it as to prevent it conflicting with the functions of broom.

2 Load data

Information on the lindner dataset can be found at at this site1.

Code

lindner_raw <- read_csv("data/lindner.csv", show_col_types = FALSE)

lindner_raw 

# A tibble: 996 × 12
   studynum lifepres cardbill abcix stent height female diabetic acutemi ejecf…¹
   <chr>       <dbl>    <dbl> <dbl> <dbl>  <dbl>  <dbl>    <dbl>   <dbl>   <dbl>
 1 lin_0001     11.6    14232     0     1    170      0        0       0      60
 2 lin_0002     11.6    10829     1     1    160      1        1       0      50
 3 lin_0003     11.6    12259     0     1    180      0        0       0      45
 4 lin_0004     11.6    14628     1     1    175      0        0       0      30
 5 lin_0005     11.6    11194     1     1    155      1        0       0      50
 6 lin_0006     11.6    12049     0     1    185      0        1       0      55
 7 lin_0007     11.6    14304     1     1    168      0        0       0      56
 8 lin_0008     11.6    11693     1     1    173      0        0       0      51
 9 lin_0009     11.6    12858     1     1    168      1        0       0      55
10 lin_0010     11.6    13188     1     1    178      0        0       1      50
# … with 986 more rows, 2 more variables: ves1proc <dbl>,
#   sixMonthSurvive <lgl>, and abbreviated variable name ¹​ejecfrac
…
