…
<sup>2</sup> Kereiakes DJ, Obenchain RL, Barber BL, et al. Abciximab
provides cost effective survival advantage in high volume interventional
practice. Am Heart J 2000; 140: 603-610.

``` r
#Read in data using 'here' package
lindner_raw <- read.csv(here("data", "lindner.csv")) %>% 
  tbl_df()

#print first 10 rows of data frame
lindner_raw
```

    ## # A tibble: 996 x 11
    ##    lifepres cardbill abcix stent height female diabetic acutemi ejecfrac
    ##       <dbl>    <int> <int> <int>  <int>  <int>    <int>   <int>    <int>
    ##  1      0      14301     1     0    163      1        1       0       56
    ##  2     11.6     3563     1     0    168      0        0       0       56
    ##  3     11.6     4694     1     0    188      0        0       0       50
    ##  4     11.6     7366     1     0    175      0        1       0       50
    ##  5     11.6     8247     1     0    168      1        0       0       55
    ##  6     11.6     8319     1     0    178      0        0       0       50
    ##  7     11.6     8410     1     0    185      0        0       0       58
    ##  8     11.6     8517     1     0    173      1        0       0       30
    ##  9     11.6     8763     1     0    152      1        0       0       60
    ## 10     11.6     8823     1     0    180      0        0       0       60
    ## # ... with 986 more rows, and 2 more variables: ves1proc <int>,
    ## #   sixMonthSurvive <lgl>
…
